{
    "photos": {
       "page": 1,
       "pages": 50,
       "perpage": 20,
       "total": 1000,
       "photo": [
          {
             "id": "51143169537",
             "owner": "187641996@N05",
             "secret": "2ca6fbe0a2",
             "server": "65535",
             "farm": 66,
             "title": "¿Está Buscando Ayuda Para Manejar Su Diabetes? ¡ Echa Un Vistazo A Estas Ideas!",
             "ispublic": 1,
             "isfriend": 0,
             "isfamily": 0,
             "url_s": "https://live.staticflickr.com/65535/51143169537_2ca6fbe0a2_m.jpg",
             "height_s": 180,
             "width_s": 240
          },
          {
             "id": "51143169917",
             "owner": "63018044@N02",
             "secret": "e7a0fee618",
             "server": "65535",
             "farm": 66,
             "title": "Goes",
             "ispublic": 1,
             "isfriend": 0,
             "isfamily": 0,
             "url_s": "https://live.staticflickr.com/65535/51143169917_e7a0fee618_m.jpg",
             "height_s": 144,
             "width_s": 240
          },
          {
             "id": "51143169972",
             "owner": "30296912@N02",
             "secret": "369c4db16c",
             "server": "65535",
             "farm": 66,
             "title": "italy",
             "ispublic": 1,
             "isfriend": 0,
             "isfamily": 0,
             "url_s": "https://live.staticflickr.com/65535/51143169972_369c4db16c_m.jpg",
             "height_s": 180,
             "width_s": 240
          },
          {
             "id": "51143170087",
             "owner": "157673927@N03",
             "secret": "97405e28eb",
             "server": "65535",
             "farm": 66,
             "title": "snapshot",
             "ispublic": 1,
             "isfriend": 0,
             "isfamily": 0,
             "url_s": "https://live.staticflickr.com/65535/51143170087_97405e28eb_m.jpg",
             "height_s": 126,
             "width_s": 240
          },
          {
             "id": "51143170247",
             "owner": "187919540@N04",
             "secret": "437aa238f0",
             "server": "65535",
             "farm": 66,
             "title": "",
             "ispublic": 1,
             "isfriend": 0,
             "isfamily": 0,
             "url_s": "https://live.staticflickr.com/65535/51143170247_437aa238f0_m.jpg",
             "height_s": 180,
             "width_s": 240
          },
          {
             "id": "51143170287",
             "owner": "155751054@N03",
             "secret": "4e438b8a05",
             "server": "65535",
             "farm": 66,
             "title": "Wooden door in Päiväkoti",
             "ispublic": 1,
             "isfriend": 0,
             "isfamily": 0,
             "url_s": "https://live.staticflickr.com/65535/51143170287_4e438b8a05_m.jpg",
             "height_s": 240,
             "width_s": 240
          },
          {
             "id": "51143170347",
             "owner": "40129895@N03",
             "secret": "55b95bc12c",
             "server": "65535",
             "farm": 66,
             "title": "z2185767546105_b6259f6befa5a8c8fa62ac97093aac78.jpg",
             "ispublic": 1,
             "isfriend": 0,
             "isfamily": 0,
             "url_s": "https://live.staticflickr.com/65535/51143170347_55b95bc12c_m.jpg",
             "height_s": 180,
             "width_s": 240
          },
          {
             "id": "51143845861",
             "owner": "20703657@N05",
             "secret": "e2ac3b5c44",
             "server": "65535",
             "farm": 66,
             "title": "20210428_101145",
             "ispublic": 1,
             "isfriend": 0,
             "isfamily": 0,
             "url_s": "https://live.staticflickr.com/65535/51143845861_e2ac3b5c44_m.jpg",
             "height_s": 240,
             "width_s": 180
          },
          {
             "id": "51143846091",
             "owner": "36840274@N07",
             "secret": "1ed1789322",
             "server": "65535",
             "farm": 66,
             "title": "Tyson 28/04/21",
             "ispublic": 1,
             "isfriend": 0,
             "isfamily": 0,
             "url_s": "https://live.staticflickr.com/65535/51143846091_1ed1789322_m.jpg",
             "height_s": 240,
             "width_s": 148
          },
          {
             "id": "51143846236",
             "owner": "12639178@N07",
             "secret": "dc2f8e077a",
             "server": "65535",
             "farm": 66,
             "title": "Neuwied (2)",
             "ispublic": 1,
             "isfriend": 0,
             "isfamily": 0,
             "url_s": "https://live.staticflickr.com/65535/51143846236_dc2f8e077a_m.jpg",
             "height_s": 159,
             "width_s": 240
          },
          {
             "id": "51144058908",
             "owner": "79743183@N05",
             "secret": "d45fc23413",
             "server": "65535",
             "farm": 66,
             "title": "2021-04-28_04-23-45",
             "ispublic": 1,
             "isfriend": 0,
             "isfamily": 0,
             "url_s": "https://live.staticflickr.com/65535/51144058908_d45fc23413_m.jpg",
             "height_s": 240,
             "width_s": 114
          },
          {
             "id": "51144059008",
             "owner": "192832242@N04",
             "secret": "ee16f9cded",
             "server": "65535",
             "farm": 66,
             "title": "Blue-Architecture-Line-Daytime-Titanic-Belfast-Case-for-iPhone-Samsung-OnePlus-24762",
             "ispublic": 1,
             "isfriend": 0,
             "isfamily": 0,
             "url_s": "https://live.staticflickr.com/65535/51144059008_ee16f9cded_m.jpg",
             "height_s": 180,
             "width_s": 240
          },
          {
             "id": "51144059068",
             "owner": "192190153@N05",
             "secret": "769d36779b",
             "server": "65535",
             "farm": 66,
             "title": "Wow_QYEOt7tHU5",
             "ispublic": 1,
             "isfriend": 0,
             "isfamily": 0,
             "url_s": "https://live.staticflickr.com/65535/51144059068_769d36779b_m.jpg",
             "height_s": 232,
             "width_s": 240
          },
          {
             "id": "51144621799",
             "owner": "68153831@N00",
             "secret": "07eccfd2b6",
             "server": "65535",
             "farm": 66,
             "title": "DSC06898",
             "ispublic": 1,
             "isfriend": 0,
             "isfamily": 0,
             "url_s": "https://live.staticflickr.com/65535/51144621799_07eccfd2b6_m.jpg",
             "height_s": 180,
             "width_s": 240
          },
          {
             "id": "51144949345",
             "owner": "97920783@N05",
             "secret": "542f7acc4c",
             "server": "65535",
             "farm": 66,
             "title": "IMG_3748.jpg",
             "ispublic": 1,
             "isfriend": 0,
             "isfamily": 0,
             "url_s": "https://live.staticflickr.com/65535/51144949345_542f7acc4c_m.jpg",
             "height_s": 119,
             "width_s": 240
          },
          {
             "id": "51144950095",
             "owner": "182124072@N05",
             "secret": "8f33b5b0e7",
             "server": "65535",
             "farm": 66,
             "title": "The Catch Family",
             "ispublic": 1,
             "isfriend": 0,
             "isfamily": 0,
             "url_s": "https://live.staticflickr.com/65535/51144950095_8f33b5b0e7_m.jpg",
             "height_s": 125,
             "width_s": 240
          },
          {
             "id": "51144950265",
             "owner": "187571471@N08",
             "secret": "c57d0e6953",
             "server": "65535",
             "farm": 66,
             "title": "L'Amour résiste, c'est bon signe !",
             "ispublic": 1,
             "isfriend": 0,
             "isfamily": 0,
             "url_s": "https://live.staticflickr.com/65535/51144950265_c57d0e6953_m.jpg",
             "height_s": 159,
             "width_s": 240
          },
          {
             "id": "51144950305",
             "owner": "190622906@N05",
             "secret": "0f9a631230",
             "server": "65535",
             "farm": 66,
             "title": "Smart ForTwo 453 Front disc brake set ventilated 304 mm by S-Mann",
             "ispublic": 1,
             "isfriend": 0,
             "isfamily": 0,
             "url_s": "https://live.staticflickr.com/65535/51144950305_0f9a631230_m.jpg",
             "height_s": 180,
             "width_s": 240
          },
          {
             "id": "51144950330",
             "owner": "145362390@N07",
             "secret": "a7c6efa6b8",
             "server": "65535",
             "farm": 66,
             "title": "Likjan piscina",
             "ispublic": 1,
             "isfriend": 0,
             "isfamily": 0,
             "url_s": "https://live.staticflickr.com/65535/51144950330_a7c6efa6b8_m.jpg",
             "height_s": 240,
             "width_s": 160
          },
          {
             "id": "51144950875",
             "owner": "140400097@N05",
             "secret": "49b5899b1b",
             "server": "65535",
             "farm": 66,
             "title": "CI0H1067.jpg",
             "ispublic": 1,
             "isfriend": 0,
             "isfamily": 0,
             "url_s": "https://live.staticflickr.com/65535/51144950875_49b5899b1b_m.jpg",
             "height_s": 160,
             "width_s": 240
          }
       ]
    },
    "stat": "ok"
 }